Stat. 651 Homework 3
…
18.1 Problem 1 (Medium): The Violations data frame in the mdsr package contains information on violations noted in Board of Health inspections of New York City restaurants. These data contain spatial information in the form of addresses and zip codes.

a. Use the geocode function in tidygeocoder to obtain spatial coordinates for these restaurants.

#coordinates Provided by Prof. Suess
Violations_loc <- read_csv("Violations_loc.csv")

Violations_loc %>% 
  select(dba, boro, street, zipcode, lon, lat)

# A tibble: 480,621 × 6
   dba                   boro  street          zipcode   lon   lat
   <chr>                 <chr> <chr>             <dbl> <dbl> <dbl>
 1 MORRIS PARK BAKE SHOP BRONX MORRIS PARK AVE   10462 -73.9  40.8
 2 MORRIS PARK BAKE SHOP BRONX MORRIS PARK AVE   10462 -73.9  40.8
 3 MORRIS PARK BAKE SHOP BRONX MORRIS PARK AVE   10462 -73.9  40.8
 4 MORRIS PARK BAKE SHOP BRONX MORRIS PARK AVE   10462 -73.9  40.8
 5 MORRIS PARK BAKE SHOP BRONX MORRIS PARK AVE   10462 -73.9  40.8
 6 MORRIS PARK BAKE SHOP BRONX MORRIS PARK AVE   10462 -73.9  40.8
 7 MORRIS PARK BAKE SHOP BRONX MORRIS PARK AVE   10462 -73.9  40.8
 8 MORRIS PARK BAKE SHOP BRONX MORRIS PARK AVE   10462 -73.9  40.8
 9 MORRIS PARK BAKE SHOP BRONX MORRIS PARK AVE   10462 -73.9  40.8
10 MORRIS PARK BAKE SHOP BRONX MORRIS PARK AVE   10462 -73.9  40.8
# … with 480,611 more rows
…
